{
    "signs": [
        {
            "id": 1,
            "name": "Mohammed",
            "password": "12345"
        },
        {
            "id": 2,
            "name": "Marc",
            "password": "54321"
        }, 
        {
            "id": 3,
            "name": "Errahim",
            "password": "67890"
        }
    ]
}
